1	0	128525348
2	157556	126535618
3	541202	132902253
4	930051	133407024
5	1278083	133594416
6	1601527	133826342
7	2076828	134489852
8	2145183	134390378
9	2443017	134874318
10	2701615	134966091
11	2950807	135226286
12	3246082	135531883
13	3543982	136102035
14	3768313	135983182
15	4244358	136537473
16	4323971	137425849
17	4581995	137027334
18	4837586	137090985
19	5204539	137448247
20	5439736	137645030
21	5772487	138160970
22	5805461	137961958
23	6089312	138438195
24	6177731	139417152
